## Interface: 50400
## Title: |cff1784d1ElvUI |rHud
## Author: Sortokk
## Version: 5.13
## Notes: Hud frames for ElvUI
## RequiredDeps: ElvUI
## X-oUF: ElvUF

locales\load_locales.xml
libs\LibElvUIPlugin-1.0\LibElvUIPlugin-1.0.lua
core\load_core.xml
libs\load_libs.xml
config\load_config.xml
modules\load_modules.xml
